%YAML 1.1
%TAG !u! tag:unity3d.com,2011:
--- !u!114 &11400000
MonoBehaviour:
  m_ObjectHideFlags: 0
  m_CorrespondingSourceObject: {fileID: 0}
  m_PrefabInstance: {fileID: 0}
  m_PrefabAsset: {fileID: 0}
  m_GameObject: {fileID: 0}
  m_Enabled: 1
  m_EditorHideFlags: 0
  m_Script: {fileID: 11500000, guid: f084f8235efb6574b942369d4cda074b, type: 3}
  m_Name: Shotgun
  m_EditorClassIdentifier: 
  itemType: 5
  weaponName: Shotgun
  attackDamage: 0
  attackForce: 0
  attackSpd: 1
  art: {fileID: 6231541362536582598, guid: f06d12409223e5b47b05e70f14aa425f, type: 3}
  isRange: 1
  attackRange: 0
  bullet: {fileID: 1756201269929883537, guid: 014f008c5c14de340b81d21926e13d3b, type: 3}
